…
count: false
 
### Everything working nicely!
.panel1-example_mean-auto[

``` r
paua   #<<
```
]
 
.panel2-example_mean-auto[

```
## # A tibble: 60 × 3
##    Species            Length   Age
##    <chr>               <dbl> <dbl>
##  1 Haliotis iris        1.8   1.50
##  2 Haliotis australis   5.4  11.9 
##  3 Haliotis australis   4.8   5.42
##  4 Haliotis iris        5.75  4.50
##  5 Haliotis iris        5.65  5.50
##  6 Haliotis iris        2.8   2.50
##  7 Haliotis australis   5.9   6.49
##  8 Haliotis iris        3.75  5.00
##  9 Haliotis australis   7.2   8.56
## 10 Haliotis iris        4.25  5.50
## # ℹ 50 more rows
```
…
### Everything working nicely!
.panel1-example_mean-auto[

``` r
paua %>%
  group_by(Species)   #<<
```
]
 
.panel2-example_mean-auto[

```
## # A tibble: 60 × 3
## # Groups:   Species [2]
##    Species            Length   Age
##    <chr>               <dbl> <dbl>
##  1 Haliotis iris        1.8   1.50
##  2 Haliotis australis   5.4  11.9 
##  3 Haliotis australis   4.8   5.42
##  4 Haliotis iris        5.75  4.50
##  5 Haliotis iris        5.65  5.50
##  6 Haliotis iris        2.8   2.50
##  7 Haliotis australis   5.9   6.49
##  8 Haliotis iris        3.75  5.00
##  9 Haliotis australis   7.2   8.56
## 10 Haliotis iris        4.25  5.50
## # ℹ 50 more rows
```
…
### Data manipulation
.panel1-penguins_na-auto[

``` r
library(palmerpenguins)
penguins  #<<
```
]
 
.panel2-penguins_na-auto[

```
## # A tibble: 344 × 8
##    species island    bill_length_mm bill_depth_mm flipper_length_mm body_mass_g sex     year
##    <fct>   <fct>              <dbl>         <dbl>             <int>       <int> <fct>  <int>
##  1 Adelie  Torgersen           39.1          18.7               181        3750 male    2007
##  2 Adelie  Torgersen           39.5          17.4               186        3800 female  2007
##  3 Adelie  Torgersen           40.3          18                 195        3250 female  2007
##  4 Adelie  Torgersen           NA            NA                  NA          NA <NA>    2007
##  5 Adelie  Torgersen           36.7          19.3               193        3450 female  2007
##  6 Adelie  Torgersen           39.3          20.6               190        3650 male    2007
##  7 Adelie  Torgersen           38.9          17.8               181        3625 female  2007
##  8 Adelie  Torgersen           39.2          19.6               195        4675 male    2007
##  9 Adelie  Torgersen           34.1          18.1               193        3475 <NA>    2007
## 10 Adelie  Torgersen           42            20.2               190        4250 <NA>    2007
## # ℹ 334 more rows
```
…
### Data manipulation
.panel1-penguins_na-auto[

``` r
library(palmerpenguins)
penguins
penguins_nafree <- penguins   #<<
```
]
 
.panel2-penguins_na-auto[

```
## # A tibble: 344 × 8
##    species island    bill_length_mm bill_depth_mm flipper_length_mm body_mass_g sex     year
##    <fct>   <fct>              <dbl>         <dbl>             <int>       <int> <fct>  <int>
##  1 Adelie  Torgersen           39.1          18.7               181        3750 male    2007
##  2 Adelie  Torgersen           39.5          17.4               186        3800 female  2007
##  3 Adelie  Torgersen           40.3          18                 195        3250 female  2007
##  4 Adelie  Torgersen           NA            NA                  NA          NA <NA>    2007
##  5 Adelie  Torgersen           36.7          19.3               193        3450 female  2007
##  6 Adelie  Torgersen           39.3          20.6               190        3650 male    2007
##  7 Adelie  Torgersen           38.9          17.8               181        3625 female  2007
##  8 Adelie  Torgersen           39.2          19.6               195        4675 male    2007
##  9 Adelie  Torgersen           34.1          18.1               193        3475 <NA>    2007
## 10 Adelie  Torgersen           42            20.2               190        4250 <NA>    2007
## # ℹ 334 more rows
```
…
### Data manipulation
.panel1-penguins_na-auto[

``` r
library(palmerpenguins)
penguins
penguins_nafree <- penguins %>%
	drop_na()  #<<
```
]
 
.panel2-penguins_na-auto[

```
## # A tibble: 344 × 8
##    species island    bill_length_mm bill_depth_mm flipper_length_mm body_mass_g sex     year
##    <fct>   <fct>              <dbl>         <dbl>             <int>       <int> <fct>  <int>
##  1 Adelie  Torgersen           39.1          18.7               181        3750 male    2007
##  2 Adelie  Torgersen           39.5          17.4               186        3800 female  2007
##  3 Adelie  Torgersen           40.3          18                 195        3250 female  2007
##  4 Adelie  Torgersen           NA            NA                  NA          NA <NA>    2007
##  5 Adelie  Torgersen           36.7          19.3               193        3450 female  2007
##  6 Adelie  Torgersen           39.3          20.6               190        3650 male    2007
##  7 Adelie  Torgersen           38.9          17.8               181        3625 female  2007
##  8 Adelie  Torgersen           39.2          19.6               195        4675 male    2007
##  9 Adelie  Torgersen           34.1          18.1               193        3475 <NA>    2007
## 10 Adelie  Torgersen           42            20.2               190        4250 <NA>    2007
## # ℹ 334 more rows
```
…
``` r
library(palmerpenguins)
penguins
penguins_nafree <- penguins %>%
	drop_na()
penguins_nafree  #<<
```
]
 
.panel2-penguins_na-auto[

```
## # A tibble: 344 × 8
##    species island    bill_length_mm bill_depth_mm flipper_length_mm body_mass_g sex     year
##    <fct>   <fct>              <dbl>         <dbl>             <int>       <int> <fct>  <int>
##  1 Adelie  Torgersen           39.1          18.7               181        3750 male    2007
##  2 Adelie  Torgersen           39.5          17.4               186        3800 female  2007
##  3 Adelie  Torgersen           40.3          18                 195        3250 female  2007
##  4 Adelie  Torgersen           NA            NA                  NA          NA <NA>    2007
##  5 Adelie  Torgersen           36.7          19.3               193        3450 female  2007
##  6 Adelie  Torgersen           39.3          20.6               190        3650 male    2007
##  7 Adelie  Torgersen           38.9          17.8               181        3625 female  2007
##  8 Adelie  Torgersen           39.2          19.6               195        4675 male    2007
##  9 Adelie  Torgersen           34.1          18.1               193        3475 <NA>    2007
## 10 Adelie  Torgersen           42            20.2               190        4250 <NA>    2007
## # ℹ 334 more rows
```

```
## # A tibble: 333 × 8
##    species island    bill_length_mm bill_depth_mm flipper_length_mm body_mass_g sex     year
##    <fct>   <fct>              <dbl>         <dbl>             <int>       <int> <fct>  <int>
##  1 Adelie  Torgersen           39.1          18.7               181        3750 male    2007
##  2 Adelie  Torgersen           39.5          17.4               186        3800 female  2007
##  3 Adelie  Torgersen           40.3          18                 195        3250 female  2007
##  4 Adelie  Torgersen           36.7          19.3               193        3450 female  2007
##  5 Adelie  Torgersen           39.3          20.6               190        3650 male    2007
##  6 Adelie  Torgersen           38.9          17.8               181        3625 female  2007
##  7 Adelie  Torgersen           39.2          19.6               195        4675 male    2007
##  8 Adelie  Torgersen           41.1          17.6               182        3200 female  2007
##  9 Adelie  Torgersen           38.6          21.2               191        3800 male    2007
## 10 Adelie  Torgersen           34.6          21.1               198        4400 male    2007
## # ℹ 323 more rows
```
…
count: false
 
### Data manipulation
.panel1-penguins_av-auto[

``` r
penguins_nafree   #<<
```
]
 
.panel2-penguins_av-auto[

```
## # A tibble: 333 × 8
##    species island    bill_length_mm bill_depth_mm flipper_length_mm body_mass_g sex     year
##    <fct>   <fct>              <dbl>         <dbl>             <int>       <int> <fct>  <int>
##  1 Adelie  Torgersen           39.1          18.7               181        3750 male    2007
##  2 Adelie  Torgersen           39.5          17.4               186        3800 female  2007
##  3 Adelie  Torgersen           40.3          18                 195        3250 female  2007
##  4 Adelie  Torgersen           36.7          19.3               193        3450 female  2007
##  5 Adelie  Torgersen           39.3          20.6               190        3650 male    2007
##  6 Adelie  Torgersen           38.9          17.8               181        3625 female  2007
##  7 Adelie  Torgersen           39.2          19.6               195        4675 male    2007
##  8 Adelie  Torgersen           41.1          17.6               182        3200 female  2007
##  9 Adelie  Torgersen           38.6          21.2               191        3800 male    2007
## 10 Adelie  Torgersen           34.6          21.1               198        4400 male    2007
## # ℹ 323 more rows
```
…
### Data manipulation
.panel1-penguins_av-auto[

``` r
penguins_nafree %>%
  group_by(species)   #<<
```
]
 
.panel2-penguins_av-auto[

```
## # A tibble: 333 × 8
## # Groups:   species [3]
##    species island    bill_length_mm bill_depth_mm flipper_length_mm body_mass_g sex     year
##    <fct>   <fct>              <dbl>         <dbl>             <int>       <int> <fct>  <int>
##  1 Adelie  Torgersen           39.1          18.7               181        3750 male    2007
##  2 Adelie  Torgersen           39.5          17.4               186        3800 female  2007
##  3 Adelie  Torgersen           40.3          18                 195        3250 female  2007
##  4 Adelie  Torgersen           36.7          19.3               193        3450 female  2007
##  5 Adelie  Torgersen           39.3          20.6               190        3650 male    2007
##  6 Adelie  Torgersen           38.9          17.8               181        3625 female  2007
##  7 Adelie  Torgersen           39.2          19.6               195        4675 male    2007
##  8 Adelie  Torgersen           41.1          17.6               182        3200 female  2007
##  9 Adelie  Torgersen           38.6          21.2               191        3800 male    2007
## 10 Adelie  Torgersen           34.6          21.1               198        4400 male    2007
## # ℹ 323 more rows
```
…
count: false
 
### Data manipulation
.panel1-penguins_pivot-auto[

``` r
penguins_nafree   #<<
```
]
 
.panel2-penguins_pivot-auto[

```
## # A tibble: 333 × 8
##    species island    bill_length_mm bill_depth_mm flipper_length_mm body_mass_g sex     year
##    <fct>   <fct>              <dbl>         <dbl>             <int>       <int> <fct>  <int>
##  1 Adelie  Torgersen           39.1          18.7               181        3750 male    2007
##  2 Adelie  Torgersen           39.5          17.4               186        3800 female  2007
##  3 Adelie  Torgersen           40.3          18                 195        3250 female  2007
##  4 Adelie  Torgersen           36.7          19.3               193        3450 female  2007
##  5 Adelie  Torgersen           39.3          20.6               190        3650 male    2007
##  6 Adelie  Torgersen           38.9          17.8               181        3625 female  2007
##  7 Adelie  Torgersen           39.2          19.6               195        4675 male    2007
##  8 Adelie  Torgersen           41.1          17.6               182        3200 female  2007
##  9 Adelie  Torgersen           38.6          21.2               191        3800 male    2007
## 10 Adelie  Torgersen           34.6          21.1               198        4400 male    2007
## # ℹ 323 more rows
```
…
### Data manipulation
.panel1-penguins_pivot-auto[

``` r
penguins_nafree %>%
  filter(., sex != "male")   #<<
```
]
 
.panel2-penguins_pivot-auto[

```
## # A tibble: 165 × 8
##    species island    bill_length_mm bill_depth_mm flipper_length_mm body_mass_g sex     year
##    <fct>   <fct>              <dbl>         <dbl>             <int>       <int> <fct>  <int>
##  1 Adelie  Torgersen           39.5          17.4               186        3800 female  2007
##  2 Adelie  Torgersen           40.3          18                 195        3250 female  2007
##  3 Adelie  Torgersen           36.7          19.3               193        3450 female  2007
##  4 Adelie  Torgersen           38.9          17.8               181        3625 female  2007
##  5 Adelie  Torgersen           41.1          17.6               182        3200 female  2007
##  6 Adelie  Torgersen           36.6          17.8               185        3700 female  2007
##  7 Adelie  Torgersen           38.7          19                 195        3450 female  2007
##  8 Adelie  Torgersen           34.4          18.4               184        3325 female  2007
##  9 Adelie  Biscoe              37.8          18.3               174        3400 female  2007
## 10 Adelie  Biscoe              35.9          19.2               189        3800 female  2007
## # ℹ 155 more rows
```
…
### Data manipulation
.panel1-penguins_pivot-auto[

``` r
penguins_nafree %>%
  filter(., sex != "male") %>%
  select(c("species", "island", "body_mass_g"))   #<<
```
]
 
.panel2-penguins_pivot-auto[

```
## # A tibble: 165 × 3
##    species island    body_mass_g
##    <fct>   <fct>           <int>
##  1 Adelie  Torgersen        3800
##  2 Adelie  Torgersen        3250
##  3 Adelie  Torgersen        3450
##  4 Adelie  Torgersen        3625
##  5 Adelie  Torgersen        3200
##  6 Adelie  Torgersen        3700
##  7 Adelie  Torgersen        3450
##  8 Adelie  Torgersen        3325
##  9 Adelie  Biscoe           3400
## 10 Adelie  Biscoe           3800
## # ℹ 155 more rows
```
…
### Data manipulation
.panel1-penguins_pivot-auto[

``` r
penguins_nafree %>%
  filter(., sex != "male") %>%
  select(c("species", "island", "body_mass_g")) %>%
  group_by(species, island)   #<<
```
]
 
.panel2-penguins_pivot-auto[

```
## # A tibble: 165 × 3
## # Groups:   species, island [5]
##    species island    body_mass_g
##    <fct>   <fct>           <int>
##  1 Adelie  Torgersen        3800
##  2 Adelie  Torgersen        3250
##  3 Adelie  Torgersen        3450
##  4 Adelie  Torgersen        3625
##  5 Adelie  Torgersen        3200
##  6 Adelie  Torgersen        3700
##  7 Adelie  Torgersen        3450
##  8 Adelie  Torgersen        3325
##  9 Adelie  Biscoe           3400
## 10 Adelie  Biscoe           3800
## # ℹ 155 more rows
```
…
